{
  "files": {
    "main.css": "/static/css/main.19393e92.chunk.css",
    "main.js": "/static/js/main.ed23f6b8.chunk.js",
    "main.js.map": "/static/js/main.ed23f6b8.chunk.js.map",
    "runtime~main.js": "/static/js/runtime~main.a8a9905a.js",
    "runtime~main.js.map": "/static/js/runtime~main.a8a9905a.js.map",
    "static/css/2.266e55a5.chunk.css": "/static/css/2.266e55a5.chunk.css",
    "static/js/2.b42b5bd1.chunk.js": "/static/js/2.b42b5bd1.chunk.js",
    "static/js/2.b42b5bd1.chunk.js.map": "/static/js/2.b42b5bd1.chunk.js.map",
    "index.html": "/index.html",
    "precache-manifest.2bc893a2af63c519f059349b0073fc31.js": "/precache-manifest.2bc893a2af63c519f059349b0073fc31.js",
    "service-worker.js": "/service-worker.js",
    "static/css/2.266e55a5.chunk.css.map": "/static/css/2.266e55a5.chunk.css.map",
    "static/css/main.19393e92.chunk.css.map": "/static/css/main.19393e92.chunk.css.map"
  }
}